^V:\PRODUCTION DM\8-SOFTWARE\ALPAO SDK\DMSOFTWARE_3_08\CDROM\SAMPLES\MSVC\EXAMPLE_MULTIDM.CPP
V:\PRODUCTION DM\8-SOFTWARE\ALPAO SDK\DMSOFTWARE_3_08\CDROM\SAMPLES\MSVC\PROJECT\EXAMPLE\OBJEX\VC141.PDB
V:\PRODUCTION DM\8-SOFTWARE\ALPAO SDK\DMSOFTWARE_3_08\CDROM\SAMPLES\MSVC\PROJECT\EXAMPLE\OBJEX\VC141.IDB
